Stat 579 - A dispute - An attempt at a solution
…
## What is Iowan's average weigth in 2015? 

Read the data: 

```r
library(tidyverse)
iowa <- readr::read_csv("https://github.com/Stat579-at-ISU/materials/raw/master/01_collaborative-environment/data/brfss_iowa.csv") 
# the read_csv function from the readr package is faster than the standard read.csv
# but the output is a tibble (we'll come back to that)

iowa
```

```
## # A tibble: 6,227 × 330
##    X_STATE FMONTH IDATE    IMONTH IDAY  IYEAR DISPCODE     SEQNO  X_PSU CTELENUM
##      <dbl>  <dbl> <chr>    <chr>  <chr> <dbl>    <dbl>     <dbl>  <dbl>    <dbl>
##  1      19      7 07082015 07     08     2015     1200    2.02e9 2.02e9       NA
##  2      19      3 03212015 03     21     2015     1200    2.02e9 2.02e9       NA
##  3      19     10 01102016 01     10     2016     1200    2.02e9 2.02e9       NA
##  4      19      4 05092015 05     09     2015     1200    2.02e9 2.02e9       NA
##  5      19      5 06242015 06     24     2015     1200    2.02e9 2.02e9       NA
##  6      19      7 08032015 08     03     2015     1200    2.02e9 2.02e9       NA
##  7      19      7 08122015 08     12     2015     1200    2.02e9 2.02e9       NA
##  8      19      7 08102015 08     10     2015     1200    2.02e9 2.02e9       NA
##  9      19     10 11152015 11     15     2015     1200    2.02e9 2.02e9       NA
## 10      19      8 08132015 08     13     2015     1200    2.02e9 2.02e9       NA
## # ℹ 6,217 more rows
## # ℹ 320 more variables: PVTRESD1 <dbl>, COLGHOUS <lgl>, STATERES <dbl>,
## #   CELLFON3 <dbl>, LADULT <lgl>, NUMADULT <dbl>, NUMMEN <dbl>, NUMWOMEN <dbl>,
## #   CTELNUM1 <dbl>, CELLFON2 <dbl>, CADULT <dbl>, PVTRESD2 <dbl>,
## #   CCLGHOUS <dbl>, CSTATE <dbl>, LANDLINE <dbl>, HHADULT <dbl>, GENHLTH <dbl>,
## #   PHYSHLTH <dbl>, MENTHLTH <dbl>, POORHLTH <dbl>, HLTHPLN1 <dbl>,
## #   PERSDOC2 <dbl>, MEDCOST <dbl>, CHECKUP1 <dbl>, BPHIGH4 <dbl>, …
```
…
