Reshaping data
…
---

# Gather/Pivot to long

```r
ffm <- french_fries %>% 
  pivot_longer(cols = potato:painty, 
               names_to = "scale", 
               values_to = "score")
ffm
```

```
## # A tibble: 3,480 x 6
##    time  treatment subject   rep scale   score
##    <fct> <fct>     <fct>   <dbl> <chr>   <dbl>
##  1 1     1         3           1 potato    2.9
##  2 1     1         3           1 buttery   0  
##  3 1     1         3           1 grassy    0  
##  4 1     1         3           1 rancid    0  
##  5 1     1         3           1 painty    5.5
##  6 1     1         3           2 potato   14  
##  7 1     1         3           2 buttery   0  
##  8 1     1         3           2 grassy    0  
##  9 1     1         3           2 rancid    1.1
## 10 1     1         3           2 painty    0  
## # … with 3,470 more rows
```
…
---

# Spread/Pivot to wide

```r
ffm %>% pivot_wider(names_from = rep, values_from = score)
```

```
## # A tibble: 1,740 x 6
##    time  treatment subject scale     `1`   `2`
##    <fct> <fct>     <fct>   <chr>   <dbl> <dbl>
##  1 1     1         3       potato    2.9  14  
##  2 1     1         3       buttery   0     0  
##  3 1     1         3       grassy    0     0  
##  4 1     1         3       rancid    0     1.1
##  5 1     1         3       painty    5.5   0  
##  6 1     1         10      potato   11     9.9
##  7 1     1         10      buttery   6.4   5.9
##  8 1     1         10      grassy    0     2.9
##  9 1     1         10      rancid    0     2.2
## 10 1     1         10      painty    0     0  
## # … with 1,730 more rows
```

```r
ffm %>% spread(key = rep, value = score)
```

```
## # A tibble: 1,740 x 6
##    time  treatment subject scale     `1`   `2`
##    <fct> <fct>     <fct>   <chr>   <dbl> <dbl>
##  1 1     1         3       buttery   0     0  
##  2 1     1         3       grassy    0     0  
##  3 1     1         3       painty    5.5   0  
##  4 1     1         3       potato    2.9  14  
##  5 1     1         3       rancid    0     1.1
##  6 1     1         10      buttery   6.4   5.9
##  7 1     1         10      grassy    0     2.9
##  8 1     1         10      painty    0     0  
##  9 1     1         10      potato   11     9.9
## 10 1     1         10      rancid    0     2.2
## # … with 1,730 more rows
```
…
