Cleaning data: messy 3
…
Does `Movie` uniquely describe a movie?

```r
movies <- box %>% select(Movie, Distributor) %>% unique()
```

Does that make a movie unique?

```r
movies %>% count(Movie) %>% arrange(desc(n))
```

```
## # A tibble: 3,473 x 2
##    Movie                            n
##    <chr>                        <int>
##  1 24 Frames: Before and After…     2
##  2 Agent Mr. Chan                   2
##  3 American Socialist: The Lif…     2
##  4 Beauty and the Beast             2
##  5 Blood Feast                      2
##  6 Bombshell: The Hedy Lamarr …     2
##  7 Breathe                          2
##  8 Champion                         2
##  9 Concussion                       2
## 10 Detective K: Secret of the …     2
## # ... with 3,463 more rows
```
…
---

# Looking into inconsistencies

```r
movies %>% group_by(Movie) %>% mutate(n = n()) %>% arrange(desc(n))
```

```
## # A tibble: 3,496 x 5
## # Groups:   Movie [3,473]
##    Movie                Distributor          firstDate  firstWeek     n
##    <chr>                <chr>                <date>         <dbl> <int>
##  1 Beauty and the Beast Lopert Pictures Cor… 2016-02-12         1     2
##  2 Beauty and the Beast Walt Disney          2017-03-17         1     2
##  3 Blood Feast          Crimson Forest Ente… 2018-04-06        42     2
##  4 Blood Feast          Hannover House       2018-04-20        44     2
##  5 Breathe              Bleecker Street      2017-10-13         1     2
##  6 Breathe              Film Movement        2015-09-11         1     2
##  7 Champion             ArtAffects           2017-05-26         2     2
##  8 Champion             Well Go USA          2018-05-11         1     2
##  9 Concussion           Radius               2013-10-04         1     2
## 10 Concussion           Sony Pictures        2015-12-25         1     2
## # ... with 3,486 more rows
```
…
